HW #1: Basics logistics
HW #2: Ch 1 and 2
    1.1
    Own question related to Ch 2
HW #3: Ch 4,5,7,8
    4.1
    7.3
    8,1, pt c and d
HW #4: Ch 10, 11
    10.1
    10.2
    11.1

HW #5: Ch 12, 13, 14
    12.1
    12.2
    12.7

