1.2630344058338 0.00
0.765534746362967 0.00
1.07038932789139 0.00
1.4329594072761 0.01
1.48542682717025 0.01
1.67807190511263 0.01
1 0.00
1 0.00
2.10433665981474 0.01
2.16992500144231 0.01
2 0.01
1.4329594072761 0.00
1.67807190511263 0.01
0.678071905112633 0.00
2 0.01
2.07038932789139 0.02
1.20163386116966 0.01
2.10433665981474 0.02
2.13750352374994 0.01
1.88752527074158 0.02
2.48542682717024 0.01
0.765534746362967 0.00
2.37851162325373 0.01
1.63226821549951 0.01
2.40599235967584 0.01
1.53605290024021 0.01
1.37851162325373 0.00
1.07038932789139 0.00
1.07038932789139 0.00
1.67807190511263 0.03
1 0.00
1 0.00
0.584962500721156 0.00
2.07038932789139 0.01
1.4329594072761 0.01
1 0.00
2.56071495447448 0.01
1.37851162325373 0.01
2.56071495447448 0.02
1.7224660244711 0.03
1.20163386116966 0.00
1.37851162325373 0.01
2.51096191927738 0.01
0.678071905112633 0.00
0.584962500721156 0.00
1.4329594072761 0.03
1.37851162325373 0.00
2.37851162325373 0.02
2.60880924267552 0.01
1.13750352374993 0.01
1.37851162325373 0.00
0.584962500721156 0.00
1.07038932789139 0.00
2.03562390973072 0.02
1.2630344058338 0.00
0.26303440583378 0.00
1.37851162325373 0.01
1.63226821549951 0.01
1.13750352374993 0.01
1.37851162325373 0.00
1.96347412397489 0.00
1.67807190511263 0.01
1.4329594072761 0.01
0.485426827170248 0.00
1.13750352374993 0.00
1.13750352374993 0.00
1.48542682717025 0.00
1 0.00
0.765534746362967 0.00
0.847996906554959 0.00
0.847996906554959 0.00
1 0.00
1.67807190511263 0.01
1 0.00
2.13750352374994 0.01
1.07038932789139 0.00
1.07038932789139 0.00
2.43295940727611 0.01
0.678071905112633 0.00
2.40599235967584 0.00
1.37851162325373 0.01
0.678071905112633 0.00
0.678071905112633 0.00
1.7224660244711 0.01
1.96347412397489 0.02
1.07038932789139 0.00
0.765534746362967 0.00
1 0.00
2.03562390973072 0.01
1.07038932789139 0.00
0.765534746362967 0.00
2.10433665981474 0.01
1.07038932789139 0.00
0.765534746362967 0.00
0.925999418556228 0.00
2.03562390973072 0.02
0.584962500721156 0.00
2.13750352374994 0.03
2.10433665981474 0.01
1.53605290024021 0.01
3.15380533607904 0.01
1 0.00
1 0.00
1.07038932789139 0.00
0.765534746362967 0.00
1.13750352374993 0.01
0.678071905112633 0.00
1.07038932789139 0.00
2 0.01
1.53605290024021 0.01
1.84799690655495 0.01
0.765534746362967 0.00
0.678071905112633 0.00
1.07038932789139 0.00
1.07038932789139 0.00
3.0703893278914 0.01
2.51096191927738 0.01
0.847996906554959 0.00
2.10433665981474 0.01
1.4329594072761 0.01
0.765534746362967 0.00
0.678071905112633 0.00
1.07038932789139 0.00
1.48542682717025 0.01
1.37851162325373 0.01
2.65535182861256 0.01
1.8073549220576 0.02
2.48542682717024 0.01
0.765534746362967 0.00
1.13750352374993 0.00
0.847996906554959 0.00
0.678071905112633 0.00
0.584962500721156 0.00
1.76553474636298 0.01
0.925999418556228 0.00
1.92599941855623 0.02
1.07038932789139 0.00
1 0.00
0.847996906554959 0.00
2.03562390973072 0.01
1.53605290024021 0.01
0.765534746362967 0.00
1.76553474636298 0.02
0.765534746362967 0.00
2.60880924267552 0.02
2.07038932789139 0.03
2.16992500144231 0.01
0.678071905112633 0.00
2.43295940727611 0.01
0.925999418556228 0.00
1.48542682717025 0.01
1.07038932789139 0.00
1.20163386116966 0.06
1.88752527074158 0.01
1 0.00
1.88752527074158 0.01
1.4329594072761 0.01
1.48542682717025 0.01
1.67807190511263 0.02
2.10433665981474 0.01
0.584962500721156 0.00
0.765534746362967 0.00
0.765534746362967 0.00
2 0.02
1.2630344058338 0.05
0.26303440583378 0.00
1.07038932789139 0.00
1.58496250072116 0.01
1.84799690655495 0.01
2.16992500144231 0.01
0.584962500721156 0.00
1.63226821549951 0.01
1.67807190511263 0.00
1.67807190511263 0.01
1.84799690655495 0.01
2.4594316186373 0.01
2.03562390973072 0.02
1.53605290024021 0.01
1.53605290024021 0.01
2 0.01
0.847996906554959 0.00
2.20163386116965 0.01
2.37851162325373 0.01
1.88752527074158 0.02
2.37851162325373 0.00
1.07038932789139 0.00
1.13750352374993 0.01
0.678071905112633 0.00
1.58496250072116 0.01
0.847996906554959 0.00
1.48542682717025 0.01
1.96347412397489 0.02
2.63226821549951 0.01
1 0.00
2.20163386116965 0.01
2 0.01
2.70043971814109 0.01
1.63226821549951 0.01
1.32192809488736 0.04
1.13750352374993 0.01
1.67807190511263 0.02
2.2630344058338 0.01
1.53605290024021 0.00
1.53605290024021 0.01
1.4329594072761 0.01
2.07038932789139 0.01
0.584962500721156 0.00
1.37851162325373 0.01
2.07038932789139 0.02
1.07038932789139 0.00
1.67807190511263 0.01
1.48542682717025 0.01
1.20163386116966 0.00
0.678071905112633 0.00
2.20163386116965 0.02
1 0.00
0.847996906554959 0.00
1.07038932789139 0.00
2.96347412397489 0.01
2.07038932789139 0.01
1.92599941855623 0.02
2.23266075679027 0.01
3.35049724708413 0.02
1.20163386116966 0.01
1.07038932789139 0.00
2.16992500144231 0.01
1.8073549220576 0.01
1.53605290024021 0.01
2.58496250072116 0.02
0.584962500721156 0.00
1.96347412397489 0.02
1.53605290024021 0.01
2.65535182861256 0.01
2.20163386116965 0.01
1.92599941855623 0.02
1.92599941855623 0.02
1.58496250072116 0.01
1.96347412397489 0.00
1.53605290024021 0.01
0.847996906554959 0.00
2.16992500144231 0.01
1.20163386116966 0.00
2.72246602447109 0.01
1.53605290024021 0.01
1.7224660244711 0.01
1.67807190511263 0.03
2 0.01
1.53605290024021 0.04
1.8073549220576 0.01
1.7224660244711 0.02
1.07038932789139 0.00
1.07038932789139 0.00
1.84799690655495 0.02
2.13750352374994 0.02
1.58496250072116 0.00
0.765534746362967 0.00
2.13750352374994 0.01
0.765534746362967 0.00
2.16992500144231 0.02
2.10433665981474 0.01
1.37851162325373 0.01
2.16992500144231 0.01
1.84799690655495 0.01
1 0.00
0.765534746362967 0.00
1.58496250072116 0.01
1.7224660244711 0.03
1.53605290024021 0.04
0.847996906554959 0.00
2.29278174922785 0.01
1.53605290024021 0.00
1.07038932789139 0.00
1.53605290024021 0.01
0.584962500721156 0.00
0.765534746362967 0.00
1.07038932789139 0.00
1.67807190511263 0.01
1.07038932789139 0.00
1.48542682717025 0.01
1.48542682717025 0.01
2 0.01
2.2630344058338 0.01
3.01792190799726 0.01
2.10433665981474 0.01
2.07038932789139 0.01
0.765534746362967 0.00
2.07038932789139 0.02
1.92599941855623 0.02
1.84799690655495 0.00
1.8073549220576 0.03
1.07038932789139 0.00
1.7224660244711 0.01
1.13750352374993 0.00
1.32192809488736 0.01
0.765534746362967 0.00
1 0.00
0.584962500721156 0.00
0.765534746362967 0.00
1.8073549220576 0.01
1.8073549220576 0.02
0.925999418556228 0.00
1.96347412397489 0.02
2.03562390973072 0.02
1.07038932789139 0.00
2.40599235967584 0.01
0.765534746362967 0.00
0.847996906554959 0.00
1.76553474636298 0.02
1.8073549220576 0.03
0.765534746362967 0.00
1.76553474636298 0.01
1 0.00
0.765534746362967 0.00
1.88752527074158 0.02
1.84799690655495 0.01
1.48542682717025 0.01
0.26303440583378 0.00
1.58496250072116 0.01
1.4329594072761 0.04
0.765534746362967 0.00
0.847996906554959 0.00
1 0.00
1 0.00
1.58496250072116 0.01
0.584962500721156 0.00
2.13750352374994 0.00
2.29278174922785 0.01
1.7224660244711 0.01
2 0.00
1.8073549220576 0.00
0.678071905112633 0.00
2.07038932789139 0.01
1.67807190511263 0.02
2 0.02
0.847996906554959 0.00
0.584962500721156 0.00
2.23266075679027 0.01
2.16992500144231 0.02
2.03562390973072 0.01
1.13750352374993 0.01
1.07038932789139 0.00
2.78659636189081 0.02
1.88752527074158 0.01
1.88752527074158 0.01
0.765534746362967 0.00
1.4329594072761 0.00
1.4329594072761 0.01
2.20163386116965 0.02
2 0.02
1 0.00
1.53605290024021 0.00
1.53605290024021 0.01
1.20163386116966 0.01
2.23266075679027 0.01
1.53605290024021 0.01
2 0.01
1.76553474636298 0.00
1 0.00
1.37851162325373 0.01
1.76553474636298 0.01
1.07038932789139 0.00
2.13750352374994 0.01
1.92599941855623 0.02
1 0.00
0.678071905112633 0.00
1.48542682717025 0.01
1.92599941855623 0.01
2 0.01
1.88752527074158 0.02
1.53605290024021 0.01
0.678071905112633 0.00
0.847996906554959 0.00
1.53605290024021 0.01
2.10433665981474 0.01
2.58496250072116 0.01
0.678071905112633 0.00
2.43295940727611 0.02
2 0.00
1 0.00
0.925999418556228 0.00
2.78659636189081 0.01
1.7224660244711 0.01
1.4329594072761 0.01
1.84799690655495 0.01
1.92599941855623 0.02
1.37851162325373 0.01
1.2630344058338 0.00
1.88752527074158 0.02
1.67807190511263 0.01
0.584962500721156 0.00
1.53605290024021 0.01
1.07038932789139 0.00
1.2630344058338 0.01
1.07038932789139 0.00
1.07038932789139 0.00
1.48542682717025 0.01
1.07038932789139 0.00
2.07038932789139 0.02
1.20163386116966 0.01
0.26303440583378 0.00
2.16992500144231 0.01
1.4329594072761 0.01
1.2630344058338 0.05
2.07038932789139 0.02
1.07038932789139 0.00
2.07038932789139 0.01
1.53605290024021 0.01
1.53605290024021 0.01
2.37851162325373 0.02
1.07038932789139 0.00
0.26303440583378 0.00
0.584962500721156 0.00
2.10433665981474 0.01
2 0.01
0.765534746362967 0.00
1.37851162325373 0.01
0.765534746362967 0.00
1.07038932789139 0.00
1.07038932789139 0.00
1.8073549220576 0.01
1.7224660244711 0.03
1.32192809488736 0.00
1.53605290024021 0.01
1.37851162325373 0.01
1.4329594072761 0.00
0.678071905112633 0.00
1.4329594072761 0.01
1.84799690655495 0.02
1.07038932789139 0.00
2.03562390973072 0.00
1 0.00
1.4329594072761 0.01
0.485426827170248 0.00
0.847996906554959 0.00
2.29278174922785 0.03
1.13750352374993 0.01
1.13750352374993 0.01
1.67807190511263 0.01
1.58496250072116 0.01
1.76553474636298 0.02
1.84799690655495 0.02
1.07038932789139 0.00
1.2630344058338 0.00
0.678071905112633 0.00
2.23266075679027 0.02
1.8073549220576 0.02
1.07038932789139 0.00
0.584962500721156 0.00
1.53605290024021 0.01
1.07038932789139 0.00
0.485426827170248 0.00
1.88752527074158 0.02
2.20163386116965 0.01
1.2630344058338 0.05
2.90689059560852 0.01
2.51096191927738 0.01
1 0.00
1.63226821549951 0.01
1.07038932789139 0.00
1.13750352374993 0.00
1.2630344058338 0.00
1.37851162325373 0.00
1.4329594072761 0.01
2 0.01
1.37851162325373 0.01
1.07038932789139 0.00
1.8073549220576 0.01
1.37851162325373 0.01
1.88752527074158 0.02
1.84799690655495 0.01
1.20163386116966 0.00
1.07038932789139 0.00
0.26303440583378 0.00
0.765534746362967 0.00
0.765534746362967 0.00
0.765534746362967 0.00
1.58496250072116 0.01
1.13750352374993 0.01
1.32192809488736 0.00
0.678071905112633 0.00
0.847996906554959 0.00
1.07038932789139 0.00
1.67807190511263 0.01
1.20163386116966 0.01
0.765534746362967 0.00
2.23266075679027 0.01
2.58496250072116 0.02
1.7224660244711 0.04
1.07038932789139 0.00
0.26303440583378 0.00
1.96347412397489 0.02
2.51096191927738 0.01
1.7224660244711 0.02
2.2630344058338 0.02
1.37851162325373 0.01
0.765534746362967 0.00
0.678071905112633 0.00
1.88752527074158 0.01
2.07038932789139 0.02
1.07038932789139 0.00
2.03562390973072 0.01
1.07038932789139 0.00
1.67807190511263 0.03
1.4329594072761 0.01
0.765534746362967 0.00
3.0703893278914 0.01
1.37851162325373 0.01
2 0.02
0.485426827170248 0.00
1.88752527074158 0.02
2.78659636189081 0.01
1.7224660244711 0.03
0.765534746362967 0.00
0.847996906554959 0.00
1.13750352374993 0.01
0.765534746362967 0.00
1.53605290024021 0.01
2.32192809488736 0.01
0.847996906554959 0.00
0.678071905112633 0.00
2.51096191927738 0.01
1 0.00
1.07038932789139 0.00
1.96347412397489 0.00
1.88752527074158 0.02
1.20163386116966 0.01
1.37851162325373 0.01
1.67807190511263 0.00
0.765534746362967 0.00
1.13750352374993 0.00
1.53605290024021 0.01
1.07038932789139 0.00
2 0.01
1.58496250072116 0.00
1.07038932789139 0.00
1 0.00
0.678071905112633 0.00
1.67807190511263 0.01
1.32192809488736 0.01
0.485426827170248 0.00
1.53605290024021 0.01
0.678071905112633 0.00
1.76553474636298 0.02
0.847996906554959 0.00
1.48542682717025 0.01
2.13750352374994 0.01
1.67807190511263 0.03
1.37851162325373 0.01
1.63226821549951 0.01
1 0.00
1 0.00
1.58496250072116 0.01
1.96347412397489 0.01
1.37851162325373 0.00
1.20163386116966 0.00
1.48542682717025 0.01
1 0.00
1.84799690655495 0.02
1.92599941855623 0.01
2.2630344058338 0.02
2.03562390973072 0.01
0.584962500721156 0.00
0.765534746362967 0.00
1.7224660244711 0.02
1.37851162325373 0.01
1.13750352374993 0.01
2.10433665981474 0.01
1.96347412397489 0.01
0.765534746362967 0.00
1.48542682717025 0.01
1.07038932789139 0.00
0.765534746362967 0.00
1.4329594072761 0.01
0.847996906554959 0.00
1.8073549220576 0.02
1 0.00
1.20163386116966 0.01
1.8073549220576 0.02
1.48542682717025 0.01
1.4329594072761 0.01
1.7224660244711 0.00
2.32192809488736 0.01
0.765534746362967 0.00
2.23266075679027 0.00
1.53605290024021 0.01
1.67807190511263 0.01
1.07038932789139 0.00
1.96347412397489 0.02
0.584962500721156 0.00
1.58496250072116 0.01
1.2630344058338 0.00
1.7224660244711 0.01
0.847996906554959 0.00
1.07038932789139 0.00
1 0.00
1 0.00
0.678071905112633 0.00
1.07038932789139 0.00
1.20163386116966 0.00
1.67807190511263 0.01
2.20163386116965 0.01
0.847996906554959 0.00
1.20163386116966 0.01
3.03562390973072 0.01
2.13750352374994 0.01
1.88752527074158 0.02
1.32192809488736 0.00
1.13750352374993 0.01
1.48542682717025 0.01
1.4329594072761 0.01
1.4329594072761 0.00
1.07038932789139 0.00
2.29278174922785 0.01
